\relax 
\providecommand\hyper@newdestlabel[2]{}
\providecommand*\new@tpo@label[2]{}
\providecommand\HyperFirstAtBeginDocument{\AtBeginDocument}
\HyperFirstAtBeginDocument{\ifx\hyper@anchor\@undefined
\global\let\oldcontentsline\contentsline
\gdef\contentsline#1#2#3#4{\oldcontentsline{#1}{#2}{#3}}
\global\let\oldnewlabel\newlabel
\gdef\newlabel#1#2{\newlabelxx{#1}#2}
\gdef\newlabelxx#1#2#3#4#5#6{\oldnewlabel{#1}{{#2}{#3}}}
\AtEndDocument{\ifx\hyper@anchor\@undefined
\let\contentsline\oldcontentsline
\let\newlabel\oldnewlabel
\fi}
\fi}
\global\let\hyper@last\relax 
\gdef\HyperFirstAtBeginDocument#1{#1}
\providecommand\HyField@AuxAddToFields[1]{}
\providecommand\HyField@AuxAddToCoFields[2]{}
\bibstyle{plain}
\citation{shi2016real}
\citation{farsiu2004fast,sajjadi2018frame}
\citation{UnetCascade,SRGAN,cai2019ntire}
\citation{cai2019ntire}
\citation{DIV2K}
\citation{SRGAN}
\citation{UnetCascade}
\citation{RCAB}
\citation{SRGAN}
\citation{gans}
\@writefile{toc}{\contentsline {section}{\numberline {1}Introduction}{1}{section.1}}
\@writefile{lof}{\contentsline {figure}{\numberline {1}{\ignorespaces Frame of target weather radar video.}}{1}{figure.1}}
\newlabel{fig:frame_base}{{1}{1}{Frame of target weather radar video}{figure.1}{}}
\@writefile{toc}{\contentsline {section}{\numberline {2}Data}{1}{section.2}}
\@writefile{toc}{\contentsline {section}{\numberline {3}Methods}{1}{section.3}}
\citation{gans}
\@writefile{toc}{\contentsline {section}{\numberline {4}Results}{2}{section.4}}
\@writefile{toc}{\contentsline {subsection}{\numberline {4.1}Video SR}{2}{subsection.4.1}}
\@writefile{toc}{\contentsline {section}{\numberline {5}Conclusion}{2}{section.5}}
\citation{UnetCascade}
\citation{UnetCascade}
\citation{SRGAN}
\citation{SRGAN}
\bibdata{reference}
\bibcite{DIV2K}{{1}{}{{}}{{}}}
\bibcite{cai2019ntire}{{2}{}{{}}{{}}}
\bibcite{farsiu2004fast}{{3}{}{{}}{{}}}
\bibcite{UnetCascade}{{4}{}{{}}{{}}}
\bibcite{gans}{{5}{}{{}}{{}}}
\bibcite{SRGAN}{{6}{}{{}}{{}}}
\@writefile{lof}{\contentsline {figure}{\numberline {2}{\ignorespaces Architecture of the U-Net network \cite  {UnetCascade}.}}{3}{figure.2}}
\newlabel{fig:unet}{{2}{3}{Architecture of the U-Net network \cite {UnetCascade}}{figure.2}{}}
\@writefile{lof}{\contentsline {figure}{\numberline {3}{\ignorespaces Architectures of the generator and discriminator networks of SRGAN. Generator is also independent model SRResNet \cite  {SRGAN}.}}{3}{figure.3}}
\newlabel{fig:srgan}{{3}{3}{Architectures of the generator and discriminator networks of SRGAN. Generator is also independent model SRResNet \cite {SRGAN}}{figure.3}{}}
\bibcite{sajjadi2018frame}{{7}{}{{}}{{}}}
\bibcite{shi2016real}{{8}{}{{}}{{}}}
\bibcite{RCAB}{{9}{}{{}}{{}}}
\providecommand\NAT@force@numbers{}\NAT@force@numbers
\@writefile{lof}{\contentsline {figure}{\numberline {4}{\ignorespaces Prediction from validation set by all methods.}}{4}{figure.4}}
\newlabel{fig:pred}{{4}{4}{Prediction from validation set by all methods}{figure.4}{}}
\@writefile{lof}{\contentsline {figure}{\numberline {5}{\ignorespaces Detail of prediction from validation set by all methods.}}{5}{figure.5}}
\newlabel{fig:pred_small}{{5}{5}{Detail of prediction from validation set by all methods}{figure.5}{}}
\@writefile{lof}{\contentsline {figure}{\numberline {6}{\ignorespaces Detail of target video SR.}}{5}{figure.6}}
\newlabel{fig:frame}{{6}{5}{Detail of target video SR}{figure.6}{}}
